/In:"E:\VuforiaProjektDRUGI\Vuforia test 1\Buildvumraki\Vuforia test 1\obj\x86\Master\ilc\in"
/Lib:"E:\VuforiaProjektDRUGI\Vuforia test 1\Buildvumraki\Vuforia test 1\obj\x86\Master\ilc\in"
/Lib:"C:\Program Files (x86)\MSBuild\Microsoft\.NetNative\x86\ilc\lib\Private"
/Lib:"C:\Program Files (x86)\Windows Kits\10\References\Windows.ApplicationModel.Activation.WebUISearchActivatedEventsContract\1.0.0.0"
/Lib:"C:\Program Files (x86)\Windows Kits\10\References\Windows.ApplicationModel.Calls.Background.CallsBackgroundContract\1.0.0.0"
/Lib:"C:\Program Files (x86)\Windows Kits\10\References\Windows.ApplicationModel.Calls.CallsPhoneContract\3.0.0.0"
/Lib:"C:\Program Files (x86)\Windows Kits\10\References\Windows.ApplicationModel.CommunicationBlocking.CommunicationBlockingContract\2.0.0.0"
/Lib:"C:\Program Files (x86)\Windows Kits\10\References\Windows.ApplicationModel.Wallet.WalletContract\1.0.0.0"
/Lib:"C:\Program Files (x86)\Windows Kits\10\References\Windows.Devices.SmartCards.SmartCardBackgroundTriggerContract\2.0.0.0"
/Lib:"C:\Program Files (x86)\Windows Kits\10\References\Windows.Devices.SmartCards.SmartCardEmulatorContract\3.0.0.0"
/Lib:"C:\Program Files (x86)\Windows Kits\10\References\Windows.Embedded.DeviceLockdown.DeviceLockdownContract\1.0.0.0"
/Lib:"C:\Program Files (x86)\Windows Kits\10\References\Windows.Gaming.Preview.GamesEnumerationContract\1.0.0.0"
/Lib:"C:\Program Files (x86)\Windows Kits\10\References\Windows.Networking.NetworkOperators.NetworkOperatorsFdnContract\1.0.0.0"
/Lib:"C:\Program Files (x86)\Windows Kits\10\References\Windows.Networking.Sockets.ControlChannelTriggerContract\2.0.0.0"
/Lib:"C:\Program Files (x86)\Windows Kits\10\References\Windows.Phone.PhoneContract\1.0.0.0"
/Lib:"C:\Program Files (x86)\Windows Kits\10\References\Windows.Phone.StartScreen.DualSimTileContract\1.0.0.0"
/Lib:"C:\Program Files (x86)\Windows Kits\10\References\Windows.Security.EnterpriseData.EnterpriseDataContract\3.0.0.0"
/Lib:"C:\Program Files (x86)\Windows Kits\10\References\Windows.Services.Maps.GuidanceContract\2.0.0.0"
/Lib:"C:\Program Files (x86)\Windows Kits\10\References\Windows.Services.Maps.LocalSearchContract\3.0.0.0"
/Lib:"C:\Program Files (x86)\Windows Kits\10\References\Windows.System.Profile.ProfileRetailInfoContract\1.0.0.0"
/Lib:"C:\Program Files (x86)\Windows Kits\10\References\Windows.System.UserProfile.UserProfileContract\1.0.0.0"
/Lib:"C:\Program Files (x86)\Windows Kits\10\References\Windows.UI.WebUI.Core.WebUICommandBarContract\1.0.0.0"
/WinMD:"E:\VuforiaProjektDRUGI\Vuforia test 1\Buildvumraki\Vuforia test 1\obj\x86\Master\ilc\in\WinMetadata\Windows.winmd"
/RdXmlPath:"C:\Program Files (x86)\MSBuild\Microsoft\.NetNative\LibraryXML"
/RunOnlyPreDR
